{
  "project_info": {
    "project_number": "955529265047",
    "firebase_url": "https://articlesguru-f126d.firebaseio.com",
    "project_id": "articlesguru-f126d",
    "storage_bucket": "articlesguru-f126d.appspot.com"
  },
  "client": [
    {
      "client_info": {
        "mobilesdk_app_id": "1:955529265047:android:651cfc7d1dbaf138",
        "android_client_info": {
          "package_name": "com.prabha.articlesguru"
        }
      },
      "oauth_client": [
        {
          "client_id": "955529265047-gt5m7dl61nha84ctju7mcbbt7tk7p98m.apps.googleusercontent.com",
          "client_type": 1,
          "android_info": {
            "package_name": "com.prabha.articlesguru",
            "certificate_hash": "3f7fd7d8e58936ebe8aa69aa5775731f0ac658ce"
          }
        },
        {
          "client_id": "955529265047-8o1n3pn45nfuf7k65n4oislba6nufoqj.apps.googleusercontent.com",
          "client_type": 3
        }
      ],
      "api_key": [
        {
          "current_key": "AIzaSyBHcWXp3LJoxZzixJ6eAXqhyZm-h-CNP2U"
        }
      ],
      "services": {
        "appinvite_service": {
          "other_platform_oauth_client": [
            {
              "client_id": "955529265047-8o1n3pn45nfuf7k65n4oislba6nufoqj.apps.googleusercontent.com",
              "client_type": 3
            }
          ]
        }
      }
    },
    {
      "client_info": {
        "mobilesdk_app_id": "1:955529265047:android:20192362b64580c9",
        "android_client_info": {
          "package_name": "com.runo.assignmentruno"
        }
      },
      "oauth_client": [
        {
          "client_id": "955529265047-nf2tg0e587uiqi4gjlp21neigp04uf0c.apps.googleusercontent.com",
          "client_type": 1,
          "android_info": {
            "package_name": "com.runo.assignmentruno",
            "certificate_hash": "3f7fd7d8e58936ebe8aa69aa5775731f0ac658ce"
          }
        },
        {
          "client_id": "955529265047-8o1n3pn45nfuf7k65n4oislba6nufoqj.apps.googleusercontent.com",
          "client_type": 3
        }
      ],
      "api_key": [
        {
          "current_key": "AIzaSyBHcWXp3LJoxZzixJ6eAXqhyZm-h-CNP2U"
        }
      ],
      "services": {
        "appinvite_service": {
          "other_platform_oauth_client": [
            {
              "client_id": "955529265047-8o1n3pn45nfuf7k65n4oislba6nufoqj.apps.googleusercontent.com",
              "client_type": 3
            }
          ]
        }
      }
    }
  ],
  "configuration_version": "1"
}